(footprint "SOIC127P599X173-16N" (version 20211014) (generator pcbnew)
  (layer "F.Cu")
  (tedit 0)
  (descr "soic-M")
  (tags "Integrated Circuit")
  (attr smd)
  (fp_text reference "IC**" (at 0 0) (layer "F.SilkS")
    (effects (font (size 1.27 1.27) (thickness 0.254)))
    (tstamp 25a47e05-764b-4516-8959-fc606e857613)
  )
  (fp_text value "SOIC127P599X173-16N" (at 0 0) (layer "F.SilkS") hide
    (effects (font (size 1.27 1.27) (thickness 0.254)))
    (tstamp b19bfe4a-ead8-4a72-b994-35b8d4285f57)
  )
  (fp_text user "${REFERENCE}" (at 0 0) (layer "F.Fab")
    (effects (font (size 1.27 1.27) (thickness 0.254)))
    (tstamp 83bdaa62-9497-4abd-b8bd-e530622a6bf6)
  )
  (fp_line (start -1.6 4.945) (end -1.6 -4.945) (layer "F.SilkS") (width 0.2) (tstamp 19a2b3cd-7e5a-42c1-8f63-a258db2bddc4))
  (fp_line (start 1.6 -4.945) (end 1.6 4.945) (layer "F.SilkS") (width 0.2) (tstamp 74aa9401-d337-499e-92c1-7b2e32849a7c))
  (fp_line (start -3.475 -5.12) (end -1.95 -5.12) (layer "F.SilkS") (width 0.2) (tstamp b92226c7-f8e7-439c-b1af-d414ced23f1e))
  (fp_line (start 1.6 4.945) (end -1.6 4.945) (layer "F.SilkS") (width 0.2) (tstamp e3bbe105-6751-4b79-9bb0-c0855fd26171))
  (fp_line (start -1.6 -4.945) (end 1.6 -4.945) (layer "F.SilkS") (width 0.2) (tstamp fec4cbfa-493d-4dfa-a5cd-31e16734af2d))
  (fp_line (start 3.725 -5.24) (end 3.725 5.24) (layer "F.CrtYd") (width 0.05) (tstamp 2a3109f9-f6b8-4b77-b1f5-c675eff31c7d))
  (fp_line (start 3.725 5.24) (end -3.725 5.24) (layer "F.CrtYd") (width 0.05) (tstamp 2e7b2b99-ee6e-4851-b5f7-66b3963aa646))
  (fp_line (start -3.725 5.24) (end -3.725 -5.24) (layer "F.CrtYd") (width 0.05) (tstamp 4c166079-f074-4e9e-8273-7cfbd6272c0e))
  (fp_line (start -3.725 -5.24) (end 3.725 -5.24) (layer "F.CrtYd") (width 0.05) (tstamp cb91a2f6-8b80-4ee5-b72f-f90fcb50d469))
  (fp_line (start 1.95 -4.945) (end 1.95 4.945) (layer "F.Fab") (width 0.1) (tstamp 4215fd32-e78f-40eb-b315-4eb969609760))
  (fp_line (start 1.95 4.945) (end -1.95 4.945) (layer "F.Fab") (width 0.1) (tstamp 83a90acf-6b67-4853-8047-ed7b699349f4))
  (fp_line (start -1.95 -4.945) (end 1.95 -4.945) (layer "F.Fab") (width 0.1) (tstamp 95b607b6-fd19-48ab-b5f4-eb0d0018cdb3))
  (fp_line (start -1.95 -3.675) (end -0.68 -4.945) (layer "F.Fab") (width 0.1) (tstamp b73491a8-edbe-40f3-89b5-2429fbbc1979))
  (fp_line (start -1.95 4.945) (end -1.95 -4.945) (layer "F.Fab") (width 0.1) (tstamp c39ac4ac-7922-40a8-b54e-1d995461aa0c))
  (pad "1" smd rect (at -2.712 -4.445 90) (size 0.65 1.525) (layers "F.Cu" "F.Paste" "F.Mask") (tstamp a75bd8a1-a642-417c-95da-cb3346d4c695))
  (pad "2" smd rect (at -2.712 -3.175 90) (size 0.65 1.525) (layers "F.Cu" "F.Paste" "F.Mask") (tstamp f8ae38cf-aa56-4258-8293-9761ae52dc50))
  (pad "3" smd rect (at -2.712 -1.905 90) (size 0.65 1.525) (layers "F.Cu" "F.Paste" "F.Mask") (tstamp 581ef193-3f03-4d10-b6de-729ff58981f1))
  (pad "4" smd rect (at -2.712 -0.635 90) (size 0.65 1.525) (layers "F.Cu" "F.Paste" "F.Mask") (tstamp 6c30a709-a809-4f07-96ea-23811fb66545))
  (pad "5" smd rect (at -2.712 0.635 90) (size 0.65 1.525) (layers "F.Cu" "F.Paste" "F.Mask") (tstamp 56f7f997-8ea9-4968-9dab-311a692a7bf8))
  (pad "6" smd rect (at -2.712 1.905 90) (size 0.65 1.525) (layers "F.Cu" "F.Paste" "F.Mask") (tstamp bac5a971-8340-4e47-8f33-b6cd89191491))
  (pad "7" smd rect (at -2.712 3.175 90) (size 0.65 1.525) (layers "F.Cu" "F.Paste" "F.Mask") (tstamp c1413e0e-6a2d-484a-82e3-874c89cf229b))
  (pad "8" smd rect (at -2.712 4.445 90) (size 0.65 1.525) (layers "F.Cu" "F.Paste" "F.Mask") (tstamp 682f0871-fed5-4409-a481-54995085521f))
  (pad "9" smd rect (at 2.712 4.445 90) (size 0.65 1.525) (layers "F.Cu" "F.Paste" "F.Mask") (tstamp 6f074b18-7700-42da-a1e1-e67198c1e1a7))
  (pad "10" smd rect (at 2.712 3.175 90) (size 0.65 1.525) (layers "F.Cu" "F.Paste" "F.Mask") (tstamp 600565fc-58a8-42d4-9b98-e7750d19c3a1))
  (pad "11" smd rect (at 2.712 1.905 90) (size 0.65 1.525) (layers "F.Cu" "F.Paste" "F.Mask") (tstamp ae349589-103b-4449-b87b-d9d3d4a1c74b))
  (pad "12" smd rect (at 2.712 0.635 90) (size 0.65 1.525) (layers "F.Cu" "F.Paste" "F.Mask") (tstamp 6835a22a-c522-4648-8a48-840a2a35679c))
  (pad "13" smd rect (at 2.712 -0.635 90) (size 0.65 1.525) (layers "F.Cu" "F.Paste" "F.Mask") (tstamp d743c61b-d77e-4ed6-9a51-30d76da4c2f4))
  (pad "14" smd rect (at 2.712 -1.905 90) (size 0.65 1.525) (layers "F.Cu" "F.Paste" "F.Mask") (tstamp b099117f-0a71-4a9a-8e3f-690ee3210ec6))
  (pad "15" smd rect (at 2.712 -3.175 90) (size 0.65 1.525) (layers "F.Cu" "F.Paste" "F.Mask") (tstamp 1cfd9963-3f30-47b4-98a0-a05c1908dd25))
  (pad "16" smd rect (at 2.712 -4.445 90) (size 0.65 1.525) (layers "F.Cu" "F.Paste" "F.Mask") (tstamp be96711c-41ec-4868-ae59-316cfbd40001))
  (model "${KIPRJMOD}/components/MIC2027 usb power dist/MIC2027-2YM.stp"
    (offset (xyz 0 0 0))
    (scale (xyz 1 1 1))
    (rotate (xyz 0 0 0))
  )
)
