PCBNEW-LibModule-V1  2022-06-19 05:58:07
# encoding utf-8
Units mm
$INDEX
QFP50P1400X1400X120-80N
$EndINDEX
$MODULE QFP50P1400X1400X120-80N
Po 0 0 0 15 62aeacdf 00000000 ~~
Li QFP50P1400X1400X120-80N
Cd (PT)80-Lead(TQFP)
Kw Integrated Circuit
Sc 0
At SMD
AR 
Op 0 0 0
T0 0 0 1.27 1.27 0 0.254 N V 21 N "IC**"
T1 0 0 1.27 1.27 0 0.254 N I 21 N "QFP50P1400X1400X120-80N"
DS -7.725 -7.725 7.725 -7.725 0.05 24
DS 7.725 -7.725 7.725 7.725 0.05 24
DS 7.725 7.725 -7.725 7.725 0.05 24
DS -7.725 7.725 -7.725 -7.725 0.05 24
DS -6 -6 6 -6 0.1 24
DS 6 -6 6 6 0.1 24
DS 6 6 -6 6 0.1 24
DS -6 6 -6 -6 0.1 24
DS -6 -5.5 -5.5 -6 0.1 24
DS -5.65 -5.65 5.65 -5.65 0.2 21
DS 5.65 -5.65 5.65 5.65 0.2 21
DS 5.65 5.65 -5.65 5.65 0.2 21
DS -5.65 5.65 -5.65 -5.65 0.2 21
DC -7.225 -5.5 -7.35 -5.5 0.254 21
$PAD
Po -6.738 -4.75
Sh "1" R 0.3 1.475 0 0 900
At SMD N 00888000
Ne 0 ""
$EndPAD
$PAD
Po -6.738 -4.25
Sh "2" R 0.3 1.475 0 0 900
At SMD N 00888000
Ne 0 ""
$EndPAD
$PAD
Po -6.738 -3.75
Sh "3" R 0.3 1.475 0 0 900
At SMD N 00888000
Ne 0 ""
$EndPAD
$PAD
Po -6.738 -3.25
Sh "4" R 0.3 1.475 0 0 900
At SMD N 00888000
Ne 0 ""
$EndPAD
$PAD
Po -6.738 -2.75
Sh "5" R 0.3 1.475 0 0 900
At SMD N 00888000
Ne 0 ""
$EndPAD
$PAD
Po -6.738 -2.25
Sh "6" R 0.3 1.475 0 0 900
At SMD N 00888000
Ne 0 ""
$EndPAD
$PAD
Po -6.738 -1.75
Sh "7" R 0.3 1.475 0 0 900
At SMD N 00888000
Ne 0 ""
$EndPAD
$PAD
Po -6.738 -1.25
Sh "8" R 0.3 1.475 0 0 900
At SMD N 00888000
Ne 0 ""
$EndPAD
$PAD
Po -6.738 -0.75
Sh "9" R 0.3 1.475 0 0 900
At SMD N 00888000
Ne 0 ""
$EndPAD
$PAD
Po -6.738 -0.25
Sh "10" R 0.3 1.475 0 0 900
At SMD N 00888000
Ne 0 ""
$EndPAD
$PAD
Po -6.738 0.25
Sh "11" R 0.3 1.475 0 0 900
At SMD N 00888000
Ne 0 ""
$EndPAD
$PAD
Po -6.738 0.75
Sh "12" R 0.3 1.475 0 0 900
At SMD N 00888000
Ne 0 ""
$EndPAD
$PAD
Po -6.738 1.25
Sh "13" R 0.3 1.475 0 0 900
At SMD N 00888000
Ne 0 ""
$EndPAD
$PAD
Po -6.738 1.75
Sh "14" R 0.3 1.475 0 0 900
At SMD N 00888000
Ne 0 ""
$EndPAD
$PAD
Po -6.738 2.25
Sh "15" R 0.3 1.475 0 0 900
At SMD N 00888000
Ne 0 ""
$EndPAD
$PAD
Po -6.738 2.75
Sh "16" R 0.3 1.475 0 0 900
At SMD N 00888000
Ne 0 ""
$EndPAD
$PAD
Po -6.738 3.25
Sh "17" R 0.3 1.475 0 0 900
At SMD N 00888000
Ne 0 ""
$EndPAD
$PAD
Po -6.738 3.75
Sh "18" R 0.3 1.475 0 0 900
At SMD N 00888000
Ne 0 ""
$EndPAD
$PAD
Po -6.738 4.25
Sh "19" R 0.3 1.475 0 0 900
At SMD N 00888000
Ne 0 ""
$EndPAD
$PAD
Po -6.738 4.75
Sh "20" R 0.3 1.475 0 0 900
At SMD N 00888000
Ne 0 ""
$EndPAD
$PAD
Po -4.75 6.738
Sh "21" R 0.3 1.475 0 0 0
At SMD N 00888000
Ne 0 ""
$EndPAD
$PAD
Po -4.25 6.738
Sh "22" R 0.3 1.475 0 0 0
At SMD N 00888000
Ne 0 ""
$EndPAD
$PAD
Po -3.75 6.738
Sh "23" R 0.3 1.475 0 0 0
At SMD N 00888000
Ne 0 ""
$EndPAD
$PAD
Po -3.25 6.738
Sh "24" R 0.3 1.475 0 0 0
At SMD N 00888000
Ne 0 ""
$EndPAD
$PAD
Po -2.75 6.738
Sh "25" R 0.3 1.475 0 0 0
At SMD N 00888000
Ne 0 ""
$EndPAD
$PAD
Po -2.25 6.738
Sh "26" R 0.3 1.475 0 0 0
At SMD N 00888000
Ne 0 ""
$EndPAD
$PAD
Po -1.75 6.738
Sh "27" R 0.3 1.475 0 0 0
At SMD N 00888000
Ne 0 ""
$EndPAD
$PAD
Po -1.25 6.738
Sh "28" R 0.3 1.475 0 0 0
At SMD N 00888000
Ne 0 ""
$EndPAD
$PAD
Po -0.75 6.738
Sh "29" R 0.3 1.475 0 0 0
At SMD N 00888000
Ne 0 ""
$EndPAD
$PAD
Po -0.25 6.738
Sh "30" R 0.3 1.475 0 0 0
At SMD N 00888000
Ne 0 ""
$EndPAD
$PAD
Po 0.25 6.738
Sh "31" R 0.3 1.475 0 0 0
At SMD N 00888000
Ne 0 ""
$EndPAD
$PAD
Po 0.75 6.738
Sh "32" R 0.3 1.475 0 0 0
At SMD N 00888000
Ne 0 ""
$EndPAD
$PAD
Po 1.25 6.738
Sh "33" R 0.3 1.475 0 0 0
At SMD N 00888000
Ne 0 ""
$EndPAD
$PAD
Po 1.75 6.738
Sh "34" R 0.3 1.475 0 0 0
At SMD N 00888000
Ne 0 ""
$EndPAD
$PAD
Po 2.25 6.738
Sh "35" R 0.3 1.475 0 0 0
At SMD N 00888000
Ne 0 ""
$EndPAD
$PAD
Po 2.75 6.738
Sh "36" R 0.3 1.475 0 0 0
At SMD N 00888000
Ne 0 ""
$EndPAD
$PAD
Po 3.25 6.738
Sh "37" R 0.3 1.475 0 0 0
At SMD N 00888000
Ne 0 ""
$EndPAD
$PAD
Po 3.75 6.738
Sh "38" R 0.3 1.475 0 0 0
At SMD N 00888000
Ne 0 ""
$EndPAD
$PAD
Po 4.25 6.738
Sh "39" R 0.3 1.475 0 0 0
At SMD N 00888000
Ne 0 ""
$EndPAD
$PAD
Po 4.75 6.738
Sh "40" R 0.3 1.475 0 0 0
At SMD N 00888000
Ne 0 ""
$EndPAD
$PAD
Po 6.738 4.75
Sh "41" R 0.3 1.475 0 0 900
At SMD N 00888000
Ne 0 ""
$EndPAD
$PAD
Po 6.738 4.25
Sh "42" R 0.3 1.475 0 0 900
At SMD N 00888000
Ne 0 ""
$EndPAD
$PAD
Po 6.738 3.75
Sh "43" R 0.3 1.475 0 0 900
At SMD N 00888000
Ne 0 ""
$EndPAD
$PAD
Po 6.738 3.25
Sh "44" R 0.3 1.475 0 0 900
At SMD N 00888000
Ne 0 ""
$EndPAD
$PAD
Po 6.738 2.75
Sh "45" R 0.3 1.475 0 0 900
At SMD N 00888000
Ne 0 ""
$EndPAD
$PAD
Po 6.738 2.25
Sh "46" R 0.3 1.475 0 0 900
At SMD N 00888000
Ne 0 ""
$EndPAD
$PAD
Po 6.738 1.75
Sh "47" R 0.3 1.475 0 0 900
At SMD N 00888000
Ne 0 ""
$EndPAD
$PAD
Po 6.738 1.25
Sh "48" R 0.3 1.475 0 0 900
At SMD N 00888000
Ne 0 ""
$EndPAD
$PAD
Po 6.738 0.75
Sh "49" R 0.3 1.475 0 0 900
At SMD N 00888000
Ne 0 ""
$EndPAD
$PAD
Po 6.738 0.25
Sh "50" R 0.3 1.475 0 0 900
At SMD N 00888000
Ne 0 ""
$EndPAD
$PAD
Po 6.738 -0.25
Sh "51" R 0.3 1.475 0 0 900
At SMD N 00888000
Ne 0 ""
$EndPAD
$PAD
Po 6.738 -0.75
Sh "52" R 0.3 1.475 0 0 900
At SMD N 00888000
Ne 0 ""
$EndPAD
$PAD
Po 6.738 -1.25
Sh "53" R 0.3 1.475 0 0 900
At SMD N 00888000
Ne 0 ""
$EndPAD
$PAD
Po 6.738 -1.75
Sh "54" R 0.3 1.475 0 0 900
At SMD N 00888000
Ne 0 ""
$EndPAD
$PAD
Po 6.738 -2.25
Sh "55" R 0.3 1.475 0 0 900
At SMD N 00888000
Ne 0 ""
$EndPAD
$PAD
Po 6.738 -2.75
Sh "56" R 0.3 1.475 0 0 900
At SMD N 00888000
Ne 0 ""
$EndPAD
$PAD
Po 6.738 -3.25
Sh "57" R 0.3 1.475 0 0 900
At SMD N 00888000
Ne 0 ""
$EndPAD
$PAD
Po 6.738 -3.75
Sh "58" R 0.3 1.475 0 0 900
At SMD N 00888000
Ne 0 ""
$EndPAD
$PAD
Po 6.738 -4.25
Sh "59" R 0.3 1.475 0 0 900
At SMD N 00888000
Ne 0 ""
$EndPAD
$PAD
Po 6.738 -4.75
Sh "60" R 0.3 1.475 0 0 900
At SMD N 00888000
Ne 0 ""
$EndPAD
$PAD
Po 4.75 -6.738
Sh "61" R 0.3 1.475 0 0 0
At SMD N 00888000
Ne 0 ""
$EndPAD
$PAD
Po 4.25 -6.738
Sh "62" R 0.3 1.475 0 0 0
At SMD N 00888000
Ne 0 ""
$EndPAD
$PAD
Po 3.75 -6.738
Sh "63" R 0.3 1.475 0 0 0
At SMD N 00888000
Ne 0 ""
$EndPAD
$PAD
Po 3.25 -6.738
Sh "64" R 0.3 1.475 0 0 0
At SMD N 00888000
Ne 0 ""
$EndPAD
$PAD
Po 2.75 -6.738
Sh "65" R 0.3 1.475 0 0 0
At SMD N 00888000
Ne 0 ""
$EndPAD
$PAD
Po 2.25 -6.738
Sh "66" R 0.3 1.475 0 0 0
At SMD N 00888000
Ne 0 ""
$EndPAD
$PAD
Po 1.75 -6.738
Sh "67" R 0.3 1.475 0 0 0
At SMD N 00888000
Ne 0 ""
$EndPAD
$PAD
Po 1.25 -6.738
Sh "68" R 0.3 1.475 0 0 0
At SMD N 00888000
Ne 0 ""
$EndPAD
$PAD
Po 0.75 -6.738
Sh "69" R 0.3 1.475 0 0 0
At SMD N 00888000
Ne 0 ""
$EndPAD
$PAD
Po 0.25 -6.738
Sh "70" R 0.3 1.475 0 0 0
At SMD N 00888000
Ne 0 ""
$EndPAD
$PAD
Po -0.25 -6.738
Sh "71" R 0.3 1.475 0 0 0
At SMD N 00888000
Ne 0 ""
$EndPAD
$PAD
Po -0.75 -6.738
Sh "72" R 0.3 1.475 0 0 0
At SMD N 00888000
Ne 0 ""
$EndPAD
$PAD
Po -1.25 -6.738
Sh "73" R 0.3 1.475 0 0 0
At SMD N 00888000
Ne 0 ""
$EndPAD
$PAD
Po -1.75 -6.738
Sh "74" R 0.3 1.475 0 0 0
At SMD N 00888000
Ne 0 ""
$EndPAD
$PAD
Po -2.25 -6.738
Sh "75" R 0.3 1.475 0 0 0
At SMD N 00888000
Ne 0 ""
$EndPAD
$PAD
Po -2.75 -6.738
Sh "76" R 0.3 1.475 0 0 0
At SMD N 00888000
Ne 0 ""
$EndPAD
$PAD
Po -3.25 -6.738
Sh "77" R 0.3 1.475 0 0 0
At SMD N 00888000
Ne 0 ""
$EndPAD
$PAD
Po -3.75 -6.738
Sh "78" R 0.3 1.475 0 0 0
At SMD N 00888000
Ne 0 ""
$EndPAD
$PAD
Po -4.25 -6.738
Sh "79" R 0.3 1.475 0 0 0
At SMD N 00888000
Ne 0 ""
$EndPAD
$PAD
Po -4.75 -6.738
Sh "80" R 0.3 1.475 0 0 0
At SMD N 00888000
Ne 0 ""
$EndPAD
$EndMODULE QFP50P1400X1400X120-80N
$EndLIBRARY
