PCBNEW-LibModule-V1  2022-07-01 02:18:20
# encoding utf-8
Units mm
$INDEX
17343272
$EndINDEX
$MODULE 17343272
Po 0 0 0 15 62be4b5c 00000000 ~~
Li 17343272
Cd 1734327-2-2
Kw Connector
Sc 0
At STD
AR 
Op 0 0 0
T0 4.825 0 1.27 1.27 0 0.254 N V 21 N "J**"
T1 4.825 0 1.27 1.27 0 0.254 N I 21 N "17343272"
DS 0 -4.45 9.2 -4.45 0.2 24
DS 9.2 -4.45 9.2 4.45 0.2 24
DS 9.2 4.45 0 4.45 0.2 24
DS 0 4.45 0 -4.45 0.2 24
DS -1 -6.45 10.65 -6.45 0.1 24
DS 10.65 -6.45 10.65 6.45 0.1 24
DS 10.65 6.45 -1 6.45 0.1 24
DS -1 6.45 -1 -6.45 0.1 24
DS 1.2 -4.45 0 -4.45 0.1 21
DS 0 -4.45 0 4.4 0.1 21
DS 0 4.4 0 4.45 0.1 21
DS 0 4.45 1.2 4.45 0.1 21
DS 4.4 -4.45 6.8 -4.45 0.1 21
DS 4.4 4.45 6.8 4.45 0.1 21
DS 10.1 -1.7 10.1 -1.7 0.2 21
DS 10.1 -1.5 10.1 -1.5 0.2 21
DA 10.1 -1.6 10.100 -1.7 -1800 0.2 21
DA 10.1 -1.6 10.100 -1.5 -1800 0.2 21
$PAD
Po 8.500 -1.6
Sh "1" R 0.500 2.300 0 0 900
At SMD N 00888000
Ne 0 ""
$EndPAD
$PAD
Po 8.500 -0.8
Sh "2" R 0.500 2.300 0 0 900
At SMD N 00888000
Ne 0 ""
$EndPAD
$PAD
Po 8.500 -0
Sh "3" R 0.500 2.300 0 0 900
At SMD N 00888000
Ne 0 ""
$EndPAD
$PAD
Po 8.500 0.8
Sh "4" R 0.500 2.300 0 0 900
At SMD N 00888000
Ne 0 ""
$EndPAD
$PAD
Po 8.500 1.6
Sh "5" R 0.500 2.300 0 0 900
At SMD N 00888000
Ne 0 ""
$EndPAD
$PAD
Po 8.400 -4.45
Sh "6" R 2.000 2.500 0 0 900
At SMD N 00888000
Ne 0 ""
$EndPAD
$PAD
Po 8.400 4.45
Sh "7" R 2.000 2.500 0 0 900
At SMD N 00888000
Ne 0 ""
$EndPAD
$PAD
Po 2.900 -4.45
Sh "8" R 2.000 2.500 0 0 900
At SMD N 00888000
Ne 0 ""
$EndPAD
$PAD
Po 2.900 4.45
Sh "9" R 2.000 2.500 0 0 900
At SMD N 00888000
Ne 0 ""
$EndPAD
$PAD
Po 5.900 -2.2
Sh "10" C 0.600 0.600 0 0 900
Dr 1.2 0 0
At STD N 00E0FFFF
Ne 0 ""
$EndPAD
$PAD
Po 5.900 2.2
Sh "11" C 0.600 0.600 0 0 900
Dr 1.2 0 0
At STD N 00E0FFFF
Ne 0 ""
$EndPAD
$EndMODULE 17343272
$EndLIBRARY
