(footprint "17343272" (version 20211014) (generator pcbnew)
  (layer "F.Cu")
  (tedit 0)
  (descr "1734327-2-2")
  (tags "Connector")
  (attr through_hole)
  (fp_text reference "J**" (at 4.825 0) (layer "F.SilkS")
    (effects (font (size 1.27 1.27) (thickness 0.254)))
    (tstamp 23b1f137-5b8c-41cf-bf9a-4dcae12be7d6)
  )
  (fp_text value "17343272" (at 4.825 0) (layer "F.SilkS") hide
    (effects (font (size 1.27 1.27) (thickness 0.254)))
    (tstamp 6f54870e-60d3-4953-a4cd-bc4e730247cc)
  )
  (fp_text user "${REFERENCE}" (at 4.825 0) (layer "F.Fab")
    (effects (font (size 1.27 1.27) (thickness 0.254)))
    (tstamp 03fb87f7-08b3-4bc5-b627-32e1b9d7b2cb)
  )
  (fp_line (start 0 4.45) (end 1.2 4.45) (layer "F.SilkS") (width 0.1) (tstamp 1118223f-f777-4434-bd4d-e667e0486a5d))
  (fp_line (start 4.4 -4.45) (end 6.8 -4.45) (layer "F.SilkS") (width 0.1) (tstamp 7e18f108-6a04-4e67-b95e-5073e0966382))
  (fp_line (start 10.1 -1.5) (end 10.1 -1.5) (layer "F.SilkS") (width 0.2) (tstamp 8134c63c-d598-4701-86cd-078a7742abff))
  (fp_line (start 0 -4.45) (end 0 4.4) (layer "F.SilkS") (width 0.1) (tstamp 8bf0808e-a6f5-406b-b81d-679f3c8d87f6))
  (fp_line (start 4.4 4.45) (end 6.8 4.45) (layer "F.SilkS") (width 0.1) (tstamp 8c954bb4-ccc8-4bf1-8dc6-87e52d295cb3))
  (fp_line (start 1.2 -4.45) (end 0 -4.45) (layer "F.SilkS") (width 0.1) (tstamp 952e0552-29df-48f4-832d-9d80a9b09717))
  (fp_line (start 0 4.4) (end 0 4.45) (layer "F.SilkS") (width 0.1) (tstamp bfc0217a-7217-40c2-b7b4-025ba4ee6401))
  (fp_line (start 10.1 -1.7) (end 10.1 -1.7) (layer "F.SilkS") (width 0.2) (tstamp ea08719d-e640-44fe-9371-cfbe9a62a902))
  (fp_arc (start 10.1 -1.7) (mid 10.2 -1.6) (end 10.1 -1.5) (layer "F.SilkS") (width 0.2) (tstamp 8a86caab-49b6-45c1-8e7e-d286cac46d31))
  (fp_arc (start 10.1 -1.5) (mid 10 -1.6) (end 10.1 -1.7) (layer "F.SilkS") (width 0.2) (tstamp a7a52dfb-92c4-4bed-becb-84f40a6ed0c9))
  (fp_line (start -1 -6.45) (end 10.65 -6.45) (layer "F.CrtYd") (width 0.1) (tstamp 604eac79-3334-419f-8669-6584cc6cac96))
  (fp_line (start 10.65 6.45) (end -1 6.45) (layer "F.CrtYd") (width 0.1) (tstamp a484bb99-efd3-4f64-a2b3-109562bf4723))
  (fp_line (start -1 6.45) (end -1 -6.45) (layer "F.CrtYd") (width 0.1) (tstamp c18d5b8c-950e-4d53-80cd-e751b61dec58))
  (fp_line (start 10.65 -6.45) (end 10.65 6.45) (layer "F.CrtYd") (width 0.1) (tstamp d6bcfa2f-4fdd-4b1a-855b-1f09c6779e24))
  (fp_line (start 9.2 4.45) (end 0 4.45) (layer "F.Fab") (width 0.2) (tstamp 42572f03-a727-44d8-988a-48a73a2687cd))
  (fp_line (start 0 4.45) (end 0 -4.45) (layer "F.Fab") (width 0.2) (tstamp 42d48303-2e10-4ec9-b18a-388eb01e9dbc))
  (fp_line (start 9.2 -4.45) (end 9.2 4.45) (layer "F.Fab") (width 0.2) (tstamp 4c0ec083-b5c1-416e-903d-3490a3c18fe1))
  (fp_line (start 0 -4.45) (end 9.2 -4.45) (layer "F.Fab") (width 0.2) (tstamp a95a5a5d-b568-476c-a262-1c96a5bb0252))
  (pad "" np_thru_hole circle (at 5.9 2.2) (size 1.2 1.2) (drill 1.2) (layers *.Cu *.Mask) (tstamp 30f351e5-f428-4904-9d6e-c00879eb9352))
  (pad "" np_thru_hole circle (at 5.9 -2.2) (size 1.2 1.2) (drill 1.2) (layers *.Cu *.Mask) (tstamp 34ceb5b6-9b84-4c21-9c3e-4c56badedee6))
  (pad "1" smd rect (at 8.5 -1.6 90) (size 0.5 2.3) (layers "F.Cu" "F.Paste" "F.Mask") (tstamp 0e911273-16a9-471a-a59f-8697db647c4f))
  (pad "2" smd rect (at 8.5 -0.8 90) (size 0.5 2.3) (layers "F.Cu" "F.Paste" "F.Mask") (tstamp 8a7c4433-1674-4b4e-95ca-c78f837987eb))
  (pad "3" smd rect (at 8.5 0 90) (size 0.5 2.3) (layers "F.Cu" "F.Paste" "F.Mask") (tstamp 945170a8-0b50-410c-a552-467863a91641))
  (pad "4" smd rect (at 8.5 0.8 90) (size 0.5 2.3) (layers "F.Cu" "F.Paste" "F.Mask") (tstamp 0a76fcaf-fe3e-4cc9-ac35-7bb4814abc13))
  (pad "5" smd rect (at 8.5 1.6 90) (size 0.5 2.3) (layers "F.Cu" "F.Paste" "F.Mask") (tstamp 9dd2bba8-ab5f-47a2-a6bc-0438c20d4b1f))
  (pad "6" smd rect (at 8.4 -4.45 90) (size 2 2.5) (layers "F.Cu" "F.Paste" "F.Mask") (tstamp 1000de1f-badd-4167-81f7-dc4d4efaec76))
  (pad "7" smd rect (at 8.4 4.45 90) (size 2 2.5) (layers "F.Cu" "F.Paste" "F.Mask") (tstamp 3b02b820-ac5b-49c7-af85-01d8adbfe672))
  (pad "8" smd rect (at 2.9 -4.45 90) (size 2 2.5) (layers "F.Cu" "F.Paste" "F.Mask") (tstamp d719fc3e-b157-4376-ba07-97f523dace8c))
  (pad "9" smd rect (at 2.9 4.45 90) (size 2 2.5) (layers "F.Cu" "F.Paste" "F.Mask") (tstamp 6ec2db58-46fa-40be-b0cc-30f1bd2b3cec))
  (model "1734327-2.stp"
    (offset (xyz -0.05999999776 -0.02999999888 1.99999997))
    (scale (xyz 1 1 1))
    (rotate (xyz -90 0 90))
  )
  (model "${KIPRJMOD}/components/usb connector/1734327-2.stp"
    (offset (xyz 0 0 2))
    (scale (xyz 1 1 1))
    (rotate (xyz -90 0 90))
  )
)
