%TF.GenerationSoftware,KiCad,Pcbnew,6.0.6-3a73a75311~116~ubuntu20.04.1*%
%TF.CreationDate,2022-07-11T16:40:06+12:00*%
%TF.ProjectId,usb-breakfast,7573622d-6272-4656-916b-666173742e6b,rev?*%
%TF.SameCoordinates,Original*%
%TF.FileFunction,Paste,Bot*%
%TF.FilePolarity,Positive*%
%FSLAX46Y46*%
G04 Gerber Fmt 4.6, Leading zero omitted, Abs format (unit mm)*
G04 Created by KiCad (PCBNEW 6.0.6-3a73a75311~116~ubuntu20.04.1) date 2022-07-11 16:40:06*
%MOMM*%
%LPD*%
G01*
G04 APERTURE LIST*
G04 Aperture macros list*
%AMRoundRect*
0 Rectangle with rounded corners*
0 $1 Rounding radius*
0 $2 $3 $4 $5 $6 $7 $8 $9 X,Y pos of 4 corners*
0 Add a 4 corners polygon primitive as box body*
4,1,4,$2,$3,$4,$5,$6,$7,$8,$9,$2,$3,0*
0 Add four circle primitives for the rounded corners*
1,1,$1+$1,$2,$3*
1,1,$1+$1,$4,$5*
1,1,$1+$1,$6,$7*
1,1,$1+$1,$8,$9*
0 Add four rect primitives between the rounded corners*
20,1,$1+$1,$2,$3,$4,$5,0*
20,1,$1+$1,$4,$5,$6,$7,0*
20,1,$1+$1,$6,$7,$8,$9,0*
20,1,$1+$1,$8,$9,$2,$3,0*%
G04 Aperture macros list end*
%ADD10RoundRect,0.237500X0.250000X0.237500X-0.250000X0.237500X-0.250000X-0.237500X0.250000X-0.237500X0*%
%ADD11RoundRect,0.237500X-0.237500X0.250000X-0.237500X-0.250000X0.237500X-0.250000X0.237500X0.250000X0*%
%ADD12RoundRect,0.237500X-0.300000X-0.237500X0.300000X-0.237500X0.300000X0.237500X-0.300000X0.237500X0*%
%ADD13R,0.600000X0.600000*%
%ADD14RoundRect,0.237500X-0.237500X0.300000X-0.237500X-0.300000X0.237500X-0.300000X0.237500X0.300000X0*%
%ADD15R,1.525000X0.650000*%
%ADD16RoundRect,0.237500X0.300000X0.237500X-0.300000X0.237500X-0.300000X-0.237500X0.300000X-0.237500X0*%
G04 APERTURE END LIST*
D10*
%TO.C,R12*%
X96723200Y-89255600D03*
X94898200Y-89255600D03*
%TD*%
D11*
%TO.C,R10*%
X92151200Y-92205800D03*
X92151200Y-94030800D03*
%TD*%
D10*
%TO.C,R9*%
X96719400Y-90855800D03*
X94894400Y-90855800D03*
%TD*%
%TO.C,R8*%
X103958400Y-101142800D03*
X102133400Y-101142800D03*
%TD*%
D12*
%TO.C,C29*%
X102184200Y-102666800D03*
X103909200Y-102666800D03*
%TD*%
D13*
%TO.C,DTX8*%
X86577000Y-50877000D03*
X86577000Y-52277000D03*
%TD*%
%TO.C,DTX3*%
X86577000Y-114631000D03*
X86577000Y-116031000D03*
%TD*%
%TO.C,DTX2*%
X86577000Y-128031000D03*
X86577000Y-129431000D03*
%TD*%
%TO.C,DRX1*%
X86577000Y-135651000D03*
X86577000Y-137051000D03*
%TD*%
%TO.C,DRX8*%
X86577000Y-45797000D03*
X86577000Y-47197000D03*
%TD*%
D14*
%TO.C,C2*%
X93014800Y-107746800D03*
X93014800Y-109471800D03*
%TD*%
D10*
%TO.C,RRX3*%
X90779600Y-110947200D03*
X88954600Y-110947200D03*
%TD*%
D13*
%TO.C,DTX7*%
X86561300Y-63268400D03*
X86561300Y-64668400D03*
%TD*%
%TO.C,DRX4*%
X86577000Y-98316000D03*
X86577000Y-96916000D03*
%TD*%
%TO.C,DTX4*%
X86577000Y-101804000D03*
X86577000Y-103204000D03*
%TD*%
D15*
%TO.C,IC1*%
X98552000Y-113284000D03*
X98552000Y-112014000D03*
X98552000Y-110744000D03*
X98552000Y-109474000D03*
X98552000Y-108204000D03*
X98552000Y-106934000D03*
X98552000Y-105664000D03*
X98552000Y-104394000D03*
X103976000Y-104394000D03*
X103976000Y-105664000D03*
X103976000Y-106934000D03*
X103976000Y-108204000D03*
X103976000Y-109474000D03*
X103976000Y-110744000D03*
X103976000Y-112014000D03*
X103976000Y-113284000D03*
%TD*%
D10*
%TO.C,RTX6*%
X90779600Y-77357200D03*
X88954600Y-77357200D03*
%TD*%
%TO.C,RTX7*%
X90763900Y-64664600D03*
X88938900Y-64664600D03*
%TD*%
D16*
%TO.C,C11*%
X107987000Y-110744000D03*
X106262000Y-110744000D03*
%TD*%
D12*
%TO.C,C12*%
X106262000Y-106934000D03*
X107987000Y-106934000D03*
%TD*%
D13*
%TO.C,DRX2*%
X86577000Y-122951000D03*
X86577000Y-124351000D03*
%TD*%
D10*
%TO.C,RRX7*%
X90763900Y-59635400D03*
X88938900Y-59635400D03*
%TD*%
D13*
%TO.C,DRX6*%
X86577000Y-70881000D03*
X86577000Y-72281000D03*
%TD*%
%TO.C,DRX5*%
X86577000Y-83581000D03*
X86577000Y-84981000D03*
%TD*%
D10*
%TO.C,RTX2*%
X90779600Y-129427200D03*
X88954600Y-129427200D03*
%TD*%
D13*
%TO.C,DTX1*%
X86577000Y-140961000D03*
X86577000Y-142361000D03*
%TD*%
D10*
%TO.C,RTX1*%
X90779600Y-142357200D03*
X88954600Y-142357200D03*
%TD*%
%TO.C,RTX4*%
X90779600Y-103200200D03*
X88954600Y-103200200D03*
%TD*%
%TO.C,RRX6*%
X90779600Y-72277200D03*
X88954600Y-72277200D03*
%TD*%
D16*
%TO.C,C9*%
X96356000Y-108458000D03*
X94631000Y-108458000D03*
%TD*%
D10*
%TO.C,RRX1*%
X90779600Y-137047200D03*
X88954600Y-137047200D03*
%TD*%
D13*
%TO.C,DTX6*%
X86577000Y-75961000D03*
X86577000Y-77361000D03*
%TD*%
D12*
%TO.C,C1*%
X94631000Y-110744000D03*
X96356000Y-110744000D03*
%TD*%
D10*
%TO.C,RTX3*%
X90779600Y-116027200D03*
X88954600Y-116027200D03*
%TD*%
%TO.C,RRX4*%
X90779600Y-98294200D03*
X88954600Y-98294200D03*
%TD*%
%TO.C,RRX8*%
X90779600Y-47193200D03*
X88954600Y-47193200D03*
%TD*%
%TO.C,RRX2*%
X90779600Y-124347200D03*
X88954600Y-124347200D03*
%TD*%
%TO.C,RTX8*%
X90779600Y-52273200D03*
X88954600Y-52273200D03*
%TD*%
D13*
%TO.C,DTX5*%
X86577000Y-88661000D03*
X86577000Y-90061000D03*
%TD*%
D10*
%TO.C,RTX5*%
X90779600Y-90057200D03*
X88954600Y-90057200D03*
%TD*%
D13*
%TO.C,DRX3*%
X86577000Y-109551000D03*
X86577000Y-110951000D03*
%TD*%
%TO.C,DRX7*%
X86561300Y-58239200D03*
X86561300Y-59639200D03*
%TD*%
D10*
%TO.C,RRX5*%
X90779600Y-84977200D03*
X88954600Y-84977200D03*
%TD*%
M02*
