M48
; DRILL file {KiCad 6.0.6-3a73a75311~116~ubuntu20.04.1} date Mon 11 Jul 2022 16:40:09
; FORMAT={-:-/ absolute / inch / decimal}
; #@! TF.CreationDate,2022-07-11T16:40:09+12:00
; #@! TF.GenerationSoftware,Kicad,Pcbnew,6.0.6-3a73a75311~116~ubuntu20.04.1
; #@! TF.FileFunction,Plated,1,3,Blind
FMAT,2
INCH
; #@! TA.AperFunction,Plated,Buried,ViaDrill
T1C0.0157
%
G90
G05
T1
X3.578Y-3.667
X3.734Y-3.467
X3.811Y-3.878
X3.945Y-3.852
X3.985Y-3.526
X3.991Y-3.743
X4.3307Y-4.6
X4.442Y-3.818
X4.442Y-3.881
X4.52Y-4.33
X4.53Y-4.37
T0
M30
