PCBNEW-LibModule-V1  2022-07-01 00:46:54
# encoding utf-8
Units mm
$INDEX
155060GS75300
$EndINDEX
$MODULE 155060GS75300
Po 0 0 0 15 62be35ee 00000000 ~~
Li 155060GS75300
Cd 155060GS75300-1
Kw LED
Sc 0
At SMD
AR 
Op 0 0 0
T0 -0.225 -0 1.27 1.27 0 0.254 N V 21 N "LED**"
T1 -0.225 -0 1.27 1.27 0 0.254 N I 21 N "155060GS75300"
DS -0.8 -0.4 0.8 -0.4 0.2 24
DS 0.8 -0.4 0.8 0.4 0.2 24
DS 0.8 0.4 -0.8 0.4 0.2 24
DS -0.8 0.4 -0.8 -0.4 0.2 24
DS -2.45 -1.4 2 -1.4 0.1 24
DS 2 -1.4 2 1.4 0.1 24
DS 2 1.4 -2.45 1.4 0.1 24
DS -2.45 1.4 -2.45 -1.4 0.1 24
DS -1.4 -0 -1.4 -0 0.1 21
DS -1.4 0.1 -1.4 0.1 0.1 21
DA -1.4 0.05 -1.400 -0 -1800 0.1 21
DA -1.4 0.05 -1.400 0.1 -1800 0.1 21
$PAD
Po -0.700 -0
Sh "1" R 0.600 0.600 0 0 0
At SMD N 00888000
Ne 0 ""
$EndPAD
$PAD
Po 0.700 -0
Sh "2" R 0.600 0.600 0 0 0
At SMD N 00888000
Ne 0 ""
$EndPAD
$EndMODULE 155060GS75300
$EndLIBRARY
