PCBNEW-LibModule-V1  2022-07-07 01:03:33
# encoding utf-8
Units mm
$INDEX
FA238240000MBC0
$EndINDEX
$MODULE FA238240000MBC0
Po 0 0 0 15 62c622d5 00000000 ~~
Li FA238240000MBC0
Cd FA-238 24.0000MB-C0-1
Kw Connector
Sc 0
At SMD
AR 
Op 0 0 0
T0 -0.500 -0 1.27 1.27 0 0.254 N V 21 N "J**"
T1 -0.500 -0 1.27 1.27 0 0.254 N I 21 N "FA238240000MBC0"
DS -1.6 -1.25 1.6 -1.25 0.2 24
DS 1.6 -1.25 1.6 1.25 0.2 24
DS 1.6 1.25 -1.6 1.25 0.2 24
DS -1.6 1.25 -1.6 -1.25 0.2 24
DS -3.8 -2.4 2.8 -2.4 0.1 24
DS 2.8 -2.4 2.8 2.4 0.1 24
DS 2.8 2.4 -3.8 2.4 0.1 24
DS -3.8 2.4 -3.8 -2.4 0.1 24
DS -2.8 0.6 -2.8 0.6 0.2 21
DS -2.6 0.6 -2.6 0.6 0.2 21
DA -2.7 0.6 -2.800 0.6 -1800 0.2 21
DA -2.7 0.6 -2.600 0.6 -1800 0.2 21
$PAD
Po -1.100 0.8
Sh "1" R 1.200 1.400 0 0 900
At SMD N 00888000
Ne 0 ""
$EndPAD
$PAD
Po 1.100 0.8
Sh "2" R 1.200 1.400 0 0 900
At SMD N 00888000
Ne 0 ""
$EndPAD
$PAD
Po 1.100 -0.8
Sh "3" R 1.200 1.400 0 0 900
At SMD N 00888000
Ne 0 ""
$EndPAD
$PAD
Po -1.100 -0.8
Sh "4" R 1.200 1.400 0 0 900
At SMD N 00888000
Ne 0 ""
$EndPAD
$EndMODULE FA238240000MBC0
$EndLIBRARY
