PCBNEW-LibModule-V1  2022-07-01 02:04:10
# encoding utf-8
Units mm
$INDEX
TBL00325404GR2OR
$EndINDEX
$MODULE TBL00325404GR2OR
Po 0 0 0 15 62be480a 00000000 ~~
Li TBL00325404GR2OR
Cd TBL003-254-04GR-2OR-2
Kw Connector
Sc 0
At STD
AR 
Op 0 0 0
T0 5.385 -1.18 1.27 1.27 0 0.254 N V 21 N "J**"
T1 5.385 -1.18 1.27 1.27 0 0.254 N I 21 N "TBL00325404GR2OR"
DS -0.99 -8.08 11.77 -8.08 0.2 24
DS 11.77 -8.08 11.77 5.72 0.2 24
DS 11.77 5.72 -0.99 5.72 0.2 24
DS -0.99 5.72 -0.99 -8.08 0.2 24
DS -2 -9.08 12.77 -9.08 0.1 24
DS 12.77 -9.08 12.77 6.72 0.1 24
DS 12.77 6.72 -2 6.72 0.1 24
DS -2 6.72 -2 -9.08 0.1 24
DS -0.99 5.72 11.77 5.72 0.1 21
DS 11.77 5.72 11.77 -8.08 0.1 21
DS 11.77 -8.08 -0.99 -8.08 0.1 21
DS -0.99 5.72 -0.99 1.5 0.1 21
DS -0.99 -1 -1 -3.5 0.1 21
DS -1 -6.5 -1 -8.08 0.1 21
$PAD
Po 0.000 -0
Sh "1" C 1.650 1.650 0 0 900
Dr 1.1 0 0
At STD N 00E0FFFF
Ne 0 ""
$EndPAD
$PAD
Po 0.000 -5.08
Sh "2" C 1.650 1.650 0 0 900
Dr 1.1 0 0
At STD N 00E0FFFF
Ne 0 ""
$EndPAD
$PAD
Po 2.540 -0
Sh "3" C 1.650 1.650 0 0 900
Dr 1.1 0 0
At STD N 00E0FFFF
Ne 0 ""
$EndPAD
$PAD
Po 2.540 -5.08
Sh "4" C 1.650 1.650 0 0 900
Dr 1.1 0 0
At STD N 00E0FFFF
Ne 0 ""
$EndPAD
$PAD
Po 5.080 -0
Sh "5" C 1.650 1.650 0 0 900
Dr 1.1 0 0
At STD N 00E0FFFF
Ne 0 ""
$EndPAD
$PAD
Po 5.080 -5.08
Sh "6" C 1.650 1.650 0 0 900
Dr 1.1 0 0
At STD N 00E0FFFF
Ne 0 ""
$EndPAD
$PAD
Po 7.620 -0
Sh "7" C 1.650 1.650 0 0 900
Dr 1.1 0 0
At STD N 00E0FFFF
Ne 0 ""
$EndPAD
$PAD
Po 7.620 -5.08
Sh "8" C 1.650 1.650 0 0 900
Dr 1.1 0 0
At STD N 00E0FFFF
Ne 0 ""
$EndPAD
$EndMODULE TBL00325404GR2OR
$EndLIBRARY
